…
aggregate(df1[colsToAggregate], by = df1[aggregateBy], FUN = dummyaggfun)

Solution 6

With the dplyr version >= 1.0.0, we can also use summarise to apply function on multiple columns with across

library(dplyr)
df1 %>% 
    group_by(year, month) %>%
    summarise(across(starts_with('x'), sum))
# A tibble: 24 x 4
# Groups:   year [2]
#    year month     x1     x2
#   <dbl> <dbl>  <dbl>  <dbl>
# 1  2000     1   11.7  52.9 
# 2  2000     2  -74.1 126.  
# 3  2000     3 -132.  149.  
# 4  2000     4 -130.    4.12
# 5  2000     5  -91.6 -55.9 
# 6  2000     6  179.   73.7 
# 7  2000     7   95.0 409.  
# 8  2000     8  255.  283.  
# 9  2000     9  489.  331.  
#10  2000    10  719.  305.  
#  with 14 more rows
…
