Aggregate / summarize multiple variables per group (e.g. sum, mean) | Solutions Checker
…
aggregate(df1[colsToAggregate], by = df1[aggregateBy], FUN = dummyaggfun)

Solution 6
data.table

With the dplyr version >= 1.0.0, we can also use summarise to apply function on multiple columns with across

library(dplyr)
df1 %>% 
    group_by(year, month) %>%
    summarise(across(starts_with('x'), sum))
# A tibble: 24 x 4
# Groups:   year [2]
#    year month     x1     x2
#   <dbl> <dbl>  <dbl>  <dbl>
# 1  2000     1   11.7  52.9 
# 2  2000     2  -74.1 126.  
# 3  2000     3 -132.  149.  
# 4  2000     4 -130.    4.12
# 5  2000     5  -91.6 -55.9 
# 6  2000     6  179.   73.7 
# 7  2000     7   95.0 409.  
# 8  2000     8  255.  283.  
# 9  2000     9  489.  331.  
#10  2000    10  719.  305.  
#  with 14 more rows
…
# Note that by default (argument keep.col.order = TRUE) the column order is also preserved

Solution 8
data.table

Below is another way to summarize multiple columns, especially useful when the function needs further arguments. You can select all columns via everything() or a subset of columns like any_of(c("a", "b")).

library(dplyr)
# toy data
df <- tibble(a = sample(c(NA, 5:7), 30, replace = TRUE), 
             b = sample(c(NA, 1:5), 30, replace = TRUE), 
             c = sample(1:5, 30, replace = TRUE), 
             grp = sample(1:3, 30, replace = TRUE))
df
#> # A tibble: 30 × 4
#>        a     b     c   grp
#>    <int> <int> <int> <int>
#>  1     7     1     3     1
#>  2     7     4     4     2
#>  3     5     1     3     3
#>  4     7    NA     3     2
#>  5     7     2     5     2
#>  6     7     4     4     2
#>  7     7    NA     3     3
#>  8    NA     5     4     1
#>  9     5     1     1     2
#> 10    NA     3     1     2
#> #  with 20 more rows
…
